300	0.035071581373079266	0.013499285598206161
330	0.036139184266787576	0.013851121543135187
360	0.040694408370423166	0.01434789925920944
390	0.040424721555572786	0.014580369580850095
420	0.03985597975648262	0.014812396740111549
450	0.04301996543279654	0.015108126666601792
480	0.046526896149846814	0.016015507629709023
510	0.0437520128343421	0.015742035814903195
540	0.04438389950166739	0.016043785439516706
570	0.04802318109473236	0.016641421740358438
600	0.04546357587329613	0.01688560003823718
630	0.04657095557437735	0.016526840326219205
660	0.044844595021816	0.01626792487625303
690	0.046050845129259686	0.0163326966846984
720	0.047956415565785546	0.016536043178401447
750	0.047797260536395623	0.01662888078246464
780	0.046483278355723856	0.016761487500730834
810	0.04115010318948429	0.016534541081961424
840	0.04332854158139092	0.016786637357186166
870	0.04562245733559779	0.017140759013037903
900	0.04228790788686852	0.017080125794917064
930	0.04595660026227762	0.01751809709096746
960	0.04291025494786325	0.01770814629005887
990	0.043410911646769294	0.018075212702716312
1020	0.041351112973614775	0.018089196817494473
1050	0.04248143389017346	0.018251578005085187
