#Point_Index	Sample_Description	Time_(sequence)(s)	Time_(action)(s)	Temperature(°C)	Frequency(Hz)	Complex_shear_strain(%)	Complex_shear_stress(Pa)	Shear_modulus_(complex_component)(Pa)	Shear_modulus_(elastic_component)(Pa)	Shear_modulus_(viscous_component)(Pa)	Shear_viscosity_(complex_component)(Pa.s)	Phase_angle(°)	Normal_force(N)	Gap(mm)	Torque(N.m)	Angular_displacement(rad)	Harmonic_distortion(%)	Point_Notes

4	0.25mM	2308.8898	100.3118	19.99	5.012	0.50036	0.5833	116.6	112.6	30.07	3.702	14.95	-0.07684	0.2	1.22E-06	0.0001	0.8483	
5	0.25mM	2333.9248	125.3468	19.99	3.981	0.50257	0.5683	113.1	108.1	33.24	4.52	17.1	-0.07639	0.2	1.19E-06	0.0001	1.356	
6	0.25mM	2358.988	150.41	19.99	3.162	0.501387	0.5484	109.4	103	36.81	5.504	19.67	-0.07677	0.2	1.15E-06	0.0001	0.7734	
7	0.25mM	2384.1685	175.5905	19.99	2.512	0.500756	0.5271	105.3	97.13	40.58	6.67	22.67	-0.07678	0.2	1.10E-06	0.0001	0.4717	
8	0.25mM	2409.189	200.611	19.99	1.995	0.501394	0.5038	100.5	90.19	44.29	8.015	26.15	-0.07669	0.2	1.06E-06	0.0001	0.3501	
9	0.25mM	2434.246	225.668	19.99	1.585	0.501697	0.4768	95.03	82.19	47.7	9.543	30.13	-0.07606	0.2	9.99E-07	0.0001	0.2016	
10	0.25mM	2459.8132	251.2352	19.99	1.259	0.500758	0.4444	88.74	73.1	50.31	11.22	34.54	-0.07722	0.2	9.31E-07	0.0001	0.2058	
11	0.25mM	2484.8321	276.2541	19.99	1	0.500548	0.4087	81.65	63.07	51.85	12.99	39.42	-0.07697	0.2	8.56E-07	0.0001	0.2667	
12	0.25mM	2509.8731	301.2951	19.99	0.7943	0.500271	0.3692	73.81	52.62	51.76	14.79	44.53	-0.07632	0.2	7.73E-07	0.0001	0.233	
13	0.25mM	2536.2201	327.6421	19.99	0.631	0.500131	0.3275	65.49	42.19	50.09	16.52	49.89	-0.07681	0.2	6.86E-07	0.0001	0.1636	
14	0.25mM	2562.2101	353.632	19.99	0.5012	0.497889	0.2836	56.96	32.63	46.69	18.09	55.05	-0.07613	0.2	5.94E-07	0.0001	0.1713	
15	0.25mM	2587.2412	378.6632	20	0.3981	0.500474	0.2435	48.66	24.26	42.18	19.45	60.09	-0.07488	0.2	5.10E-07	0.0001	0.1039	
16	0.25mM	2613.5749	404.9969	20	0.3162	0.501696	0.2045	40.77	17.44	36.85	20.52	64.68	-0.07622	0.2	4.28E-07	0.0001	0.1106	
17	0.25mM	2641.5428	432.9648	20	0.2512	0.500483	0.1691	33.79	12.27	31.48	21.41	68.71	-0.0759	0.2	3.54E-07	0.0001	0.2549	
18	0.25mM	2666.5618	457.9838	20	0.1995	0.500832	0.1381	27.58	8.378	26.27	22	72.31	-0.07586	0.2	2.89E-07	0.0001	0.2022	
19	0.25mM	2692.8789	484.3009	20	0.1585	0.506829	0.1135	22.39	5.736	21.64	22.48	75.16	-0.07569	0.2	2.38E-07	0.0001	0.5782	
20	0.25mM	2720.8275	512.2495	20	0.1259	0.500351	0.09041	18.07	3.922	17.64	22.84	77.46	-0.07601	0.2	1.89E-07	0.0001	0.6109	
21	0.25mM	2750.8325	542.2545	20	0.1	0.501484	0.07255	14.47	2.693	14.22	23.03	79.27	-0.07468	0.2	1.52E-07	0.0001	0.7015	