50000000 36 0 1 3 3 4 4 4 4 1 4 4 2 1 1 0 0 0
50500000 39 0 3 3 2 5 4 6 4 2 1 4 2 2 1 0 0 0
51000000 45 0 2 3 2 5 4 8 3 5 3 5 1 2 0 0 2 0
51500000 46 0 3 4 2 6 6 8 2 5 5 3 1 1 0 0 0 0
52000000 46 0 2 4 2 7 5 7 4 1 7 4 3 0 0 0 0 0
52500000 48 0 2 4 2 6 2 11 5 1 8 2 3 1 0 1 0 0
53000000 47 0 4 4 1 4 5 8 7 5 2 2 1 2 0 2 0 0
53500000 38 0 3 3 0 3 5 5 6 2 1 2 4 1 1 2 0 0
54000000 40 0 2 3 0 3 7 6 7 1 1 3 4 1 1 1 0 0
54500000 46 0 2 3 0 3 7 5 5 5 1 8 2 4 1 0 0 0
55000000 43 0 2 5 0 1 7 7 7 7 0 4 1 2 0 0 0 0
55500000 44 0 2 7 0 2 2 7 5 2 5 2 3 5 1 1 0 0
56000000 44 0 2 6 3 1 1 7 7 7 2 4 1 3 0 0 0 0
56500000 48 0 2 5 3 1 1 5 4 7 7 6 4 2 0 1 0 0
57000000 48 0 2 5 3 2 4 5 3 5 7 5 4 2 0 1 0 0
57500000 50 0 2 5 5 2 6 5 2 5 8 4 4 2 0 0 0 0
58000000 50 0 3 5 5 2 4 6 2 7 7 4 2 2 1 0 0 0
58500000 59 0 3 4 4 2 5 6 2 6 11 9 4 2 1 0 0 0
59000000 45 0 5 4 4 1 4 3 2 3 6 4 5 3 1 0 0 0
59500000 42 0 5 4 4 1 5 5 2 2 5 1 7 0 1 0 0 0
60000000 45 0 5 3 7 1 3 7 3 4 7 2 2 1 0 0 0 0
60500000 50 0 5 2 6 2 3 4 2 4 9 3 3 5 1 0 1 0
61000000 49 0 6 3 5 2 4 6 7 6 6 3 0 1 0 0 0 0
61500000 52 0 6 3 6 2 5 10 8 4 2 3 0 2 1 0 0 0
62000000 45 0 4 3 6 0 2 7 6 5 3 4 3 2 0 0 0 0
62500000 62 0 4 4 6 1 3 13 11 11 2 3 1 3 0 0 0 0
63000000 58 0 5 3 4 0 6 12 7 8 1 5 3 2 2 0 0 0
63500000 58 0 5 3 4 0 7 13 9 8 2 3 0 2 2 0 0 0
64000000 56 0 5 4 4 0 8 14 6 7 3 1 1 1 2 0 0 0
64500000 45 0 5 5 4 1 3 10 5 6 2 1 1 1 0 1 0 0
65000000 52 0 5 4 3 3 7 8 4 4 4 4 4 2 0 0 0 0
65500000 43 0 5 4 0 3 7 6 5 3 2 5 2 0 1 0 0 0
66000000 46 0 6 3 1 4 5 6 5 7 2 6 1 0 0 0 0 0
66500000 46 0 7 4 2 5 5 7 7 4 2 2 1 0 0 0 0 0
67000000 47 0 4 4 2 6 4 6 11 3 4 1 2 0 0 0 0 0
67500000 54 1 5 5 3 6 4 8 7 4 4 1 5 1 0 0 0 0
68000000 47 0 5 4 1 4 2 5 4 6 5 3 6 0 2 0 0 0
68500000 43 0 6 3 4 3 4 5 4 5 2 2 2 2 0 1 0 0
69000000 43 0 6 2 2 2 5 5 3 4 4 4 4 1 0 1 0 0
69500000 47 0 3 2 3 4 5 8 7 3 5 3 4 0 0 0 0 0
70000000 44 0 3 2 2 1 4 9 4 1 7 6 5 0 0 0 0 0
70500000 50 0 3 5 4 2 6 6 2 5 7 6 0 4 0 0 0 0
71000000 44 0 2 4 7 3 6 4 3 0 7 6 0 0 2 0 0 0
71500000 41 0 2 3 6 2 7 5 3 0 5 6 2 0 0 0 0 0
72000000 47 1 1 3 4 4 7 3 5 0 5 6 2 2 3 0 0 1
72500000 56 1 1 4 4 4 6 3 6 4 12 3 3 1 4 0 0 0
73000000 46 1 1 7 3 3 2 5 3 4 4 5 3 1 1 1 2 0
73500000 48 1 1 7 5 3 4 6 3 3 4 6 1 0 1 1 2 0
74000000 35 0 1 5 6 3 2 7 0 2 3 1 1 0 2 0 2 0
74500000 44 0 1 4 7 3 1 7 3 5 5 2 1 1 1 2 1 0
75000000 42 0 1 3 8 2 1 6 6 3 2 3 4 2 1 0 0 0
75500000 46 0 1 2 11 3 0 6 4 5 5 6 2 1 0 0 0 0
76000000 40 0 1 3 9 1 1 4 1 9 1 7 1 0 1 0 0 1
76500000 44 0 2 2 7 2 2 2 4 8 3 5 4 2 1 0 0 0
77000000 53 0 2 3 9 4 2 3 6 9 6 3 4 2 0 0 0 0
77500000 48 0 3 2 8 3 2 3 4 7 5 3 5 1 2 0 0 0
78000000 47 0 3 3 8 3 2 2 4 7 7 2 2 3 0 0 1 0
78500000 49 0 2 3 5 4 4 3 4 5 5 5 6 2 1 0 0 0
79000000 42 0 1 3 4 2 3 1 5 5 4 7 3 3 1 0 0 0
79500000 41 0 1 3 2 1 3 3 2 8 7 8 3 0 0 0 0 0
80000000 38 0 2 3 2 0 3 4 3 6 8 4 2 1 0 0 0 0
80500000 44 0 2 4 3 3 2 4 2 6 8 5 3 2 0 0 0 0
81000000 41 0 2 3 2 5 1 4 4 3 10 4 2 1 0 0 0 0
81500000 43 0 2 5 2 4 2 3 2 4 5 9 0 5 0 0 0 0
82000000 42 0 2 3 1 6 2 2 3 3 1 9 4 2 2 2 0 0
82500000 47 0 4 2 2 4 2 3 2 6 4 7 6 3 1 1 0 0
83000000 42 0 4 3 5 3 0 3 2 5 6 4 3 2 1 1 0 0
83500000 43 0 3 4 5 3 0 3 8 2 4 4 4 3 0 0 0 0
84000000 48 0 3 5 5 5 2 2 6 3 4 8 3 1 1 0 0 0
84500000 42 0 2 6 5 3 4 5 6 5 3 2 1 0 0 0 0 0
85000000 51 0 2 7 5 4 3 6 7 6 4 4 1 0 1 1 0 0
85500000 47 0 2 7 4 4 4 4 7 6 3 3 2 1 0 0 0 0
86000000 55 0 2 7 4 5 4 8 8 4 6 2 2 1 2 0 0 0
86500000 50 0 3 4 4 2 3 8 3 4 8 2 5 1 2 0 1 0
87000000 47 0 2 6 5 3 3 9 3 4 6 1 3 2 0 0 0 0
87500000 47 0 1 6 3 3 4 9 3 4 7 2 1 2 1 1 0 0
88000000 45 0 0 5 2 3 6 8 2 7 7 1 0 3 0 1 0 0
88500000 48 0 0 5 4 5 5 6 3 10 5 2 0 2 1 0 0 0
89000000 48 0 0 4 3 5 6 7 7 5 6 3 1 1 0 0 0 0
89500000 42 0 1 4 1 3 2 5 8 2 6 6 2 1 1 0 0 0
90000000 34 0 0 2 0 2 1 6 4 2 4 8 2 2 0 0 0 1
90500000 48 0 3 4 1 4 4 6 5 5 4 7 3 0 2 0 0 0
91000000 51 0 3 4 1 5 5 6 5 5 7 3 3 0 4 0 0 0
91500000 46 0 2 4 0 4 7 7 5 6 6 4 1 0 0 0 0 0
92000000 55 0 1 2 2 4 7 10 5 9 10 3 2 0 0 0 0 0
92500000 48 0 1 2 1 3 7 11 5 3 8 3 1 3 0 0 0 0
93000000 42 0 1 2 1 3 3 8 2 6 3 3 4 5 0 1 0 0
93500000 39 0 1 3 2 2 4 10 3 7 2 2 1 1 0 1 0 0
94000000 43 0 1 4 2 5 2 8 4 6 3 4 1 2 1 0 0 0
94500000 41 0 1 6 3 4 1 9 3 4 1 2 2 4 0 0 0 1
95000000 42 0 1 4 6 6 1 7 2 6 5 4 0 0 0 0 0 0
95500000 42 0 2 6 6 4 1 3 2 3 4 8 1 1 0 1 0 0
96000000 46 0 1 5 5 4 2 3 4 3 7 3 4 3 1 1 0 0
96500000 44 0 2 5 4 3 5 2 1 5 5 5 4 0 1 2 0 0
97000000 47 0 1 6 4 2 5 2 4 5 7 3 6 0 0 2 0 0
97500000 41 0 2 4 4 1 4 2 3 4 5 4 4 1 2 1 0 0
98000000 41 0 2 5 2 1 5 1 8 3 3 3 6 0 2 0 0 0
98500000 41 0 2 5 2 1 2 2 11 4 4 1 6 0 1 0 0 0
99000000 47 0 2 3 1 1 3 6 8 5 5 5 5 2 1 0 0 0
99500000 41 0 3 3 0 1 4 6 6 5 4 5 3 0 0 1 0 0
100000000 44 0 3 3 0 1 3 6 8 7 8 2 2 0 0 1 0 0
