50000000 135 0 3 2 3 4 11 12 14 14 20 18 20 5 8 1 0 0
51250000 131 0 4 4 3 4 9 15 14 19 19 20 12 3 3 2 0 0
52500000 125 1 7 4 4 5 11 10 15 18 18 14 8 6 1 2 1 0
53750000 114 0 5 5 4 8 7 9 5 14 18 11 14 6 4 2 2 0
55000000 117 0 2 7 4 6 6 10 12 9 20 19 12 8 1 1 0 0
56250000 130 0 1 8 4 7 6 10 18 24 28 12 10 1 1 0 0 0
57500000 130 0 3 7 12 7 3 15 19 15 18 17 9 4 0 1 0 0
58750000 132 0 4 7 11 4 5 13 17 22 18 17 9 1 4 0 0 0
60000000 126 0 6 8 10 8 4 9 13 25 16 12 6 5 3 0 1 0
61250000 115 0 4 6 6 4 6 10 12 19 16 13 14 2 3 0 0 0
62500000 138 0 3 9 10 3 9 10 15 9 14 27 17 8 3 1 0 0
63750000 128 1 3 11 10 7 11 12 10 9 18 15 9 8 3 1 0 0
65000000 141 0 3 11 11 5 9 14 10 20 17 16 10 11 1 1 1 1
66250000 133 0 2 9 10 5 8 10 9 23 17 19 13 4 3 1 0 0
67500000 130 0 3 8 6 5 3 6 17 12 19 20 14 10 5 1 1 0
68750000 124 0 2 4 4 7 4 12 18 16 19 14 15 6 2 1 0 0
70000000 128 0 3 5 6 8 8 7 18 14 18 20 8 13 0 0 0 0
71250000 132 0 7 7 8 10 5 8 17 16 13 18 12 7 4 0 0 0
72500000 122 1 6 7 7 10 9 11 11 16 12 11 8 7 4 1 0 1
73750000 127 0 7 9 5 10 9 7 16 18 10 16 11 7 2 0 0 0
75000000 121 0 5 8 9 7 4 9 15 14 11 15 14 7 3 0 0 0
76250000 129 0 4 10 9 9 5 9 12 18 18 18 9 5 2 1 0 0
77500000 114 0 4 12 9 9 4 8 7 13 18 11 8 4 5 2 0 0
78750000 118 0 3 12 7 9 7 5 9 12 21 14 13 4 1 0 1 0
80000000 112 0 4 9 4 7 7 10 6 8 17 23 6 8 3 0 0 0
81250000 122 0 2 11 3 5 5 10 7 18 18 25 6 9 2 1 0 0
82500000 124 0 3 12 0 4 5 7 7 12 17 24 17 14 1 1 0 0
83750000 122 0 2 11 3 6 7 14 14 12 23 18 6 4 2 0 0 0
85000000 131 0 1 11 4 4 10 11 13 13 22 20 13 7 1 1 0 0
86250000 132 0 2 13 5 8 8 10 12 17 16 10 19 9 3 0 0 0
87500000 124 0 1 7 6 7 6 13 17 15 21 16 10 3 2 0 0 0
88750000 123 0 1 7 6 13 6 9 14 24 16 13 8 2 3 1 0 0
90000000 140 1 1 7 8 8 7 14 16 23 21 19 11 4 0 0 0 0
91250000 128 0 3 8 7 5 7 6 16 18 14 20 13 9 1 0 1 0
92500000 135 0 2 8 10 5 7 7 13 18 23 18 17 5 2 0 0 0
93750000 127 0 3 7 11 8 7 8 18 19 13 13 10 7 2 0 1 0
95000000 120 0 0 5 9 4 10 8 15 24 16 14 9 5 1 0 0 0
96250000 126 0 2 6 8 7 12 12 15 13 16 11 15 5 3 1 0 0
97500000 137 0 2 4 11 9 9 6 20 16 19 18 16 7 0 0 0 0
98750000 125 0 4 3 13 8 5 5 18 20 12 16 15 3 1 2 0 0
100000000 136 0 4 6 12 7 9 5 13 19 18 21 12 6 3 1 0 0
