80000000 16 0 2 2 0 1 1 0 3 4 1 2 0 0 0 0 0 0
80250000 17 0 1 4 0 2 1 1 3 2 1 1 0 0 0 0 1 0
80500000 21 0 2 5 0 2 2 2 3 2 1 1 0 1 0 0 0 0
80750000 17 0 2 5 0 2 1 1 2 3 0 1 0 0 0 0 0 0
81000000 16 0 2 5 1 2 1 1 2 2 0 0 0 0 0 0 0 0
81250000 14 0 2 3 1 2 1 1 2 2 0 0 0 0 0 0 0 0
81500000 15 0 3 3 1 2 1 1 2 1 0 0 0 1 0 0 0 0
81750000 17 0 2 2 2 2 2 1 3 1 1 0 1 0 0 0 0 0
82000000 16 0 2 2 2 2 0 2 2 2 1 0 1 0 0 0 0 0
82250000 15 0 2 2 2 2 0 2 2 2 1 0 0 0 0 0 0 0
82500000 13 0 2 2 2 0 0 1 2 3 1 0 0 0 0 0 0 0
82750000 14 0 1 2 1 1 1 1 2 2 1 2 0 0 0 0 0 0
83000000 14 0 2 2 1 1 0 1 2 2 1 2 0 0 0 0 0 0
83250000 17 0 2 2 3 1 1 2 1 2 2 1 0 0 0 0 0 0
83500000 21 0 3 1 4 2 2 3 1 2 1 1 0 1 0 0 0 0
83750000 23 0 3 1 4 2 2 2 2 4 2 0 0 1 0 0 0 0
84000000 24 0 2 1 4 2 2 1 3 4 3 1 0 1 0 0 0 0
84250000 21 0 1 1 3 3 1 1 4 4 2 0 1 0 0 0 0 0
84500000 24 0 1 2 3 3 1 0 4 5 4 1 0 0 0 0 0 0
84750000 22 0 1 2 3 3 1 0 4 4 2 2 0 0 0 0 0 0
85000000 26 0 1 2 4 4 1 2 4 3 1 1 2 0 1 0 0 0
85250000 21 0 0 1 4 3 1 4 3 2 2 1 0 0 0 0 0 0
85500000 19 0 0 1 5 2 1 5 2 1 1 1 0 0 0 0 0 0
85750000 19 0 0 1 4 2 1 5 1 1 0 2 2 0 0 0 0 0
86000000 21 1 0 2 4 3 1 2 2 2 2 1 1 0 0 0 0 0
86250000 21 1 2 2 3 3 2 2 2 1 2 1 0 0 0 0 0 0
86500000 20 1 1 3 4 2 3 2 1 1 0 2 0 0 0 0 0 0
86750000 20 1 0 3 4 3 3 1 2 1 0 2 0 0 0 0 0 0
87000000 24 1 1 4 4 2 4 0 2 2 1 3 0 0 0 0 0 0
87250000 26 1 1 5 4 2 4 0 3 3 1 2 0 0 0 0 0 0
87500000 24 1 1 4 4 2 2 0 3 2 1 2 2 0 0 0 0 0
87750000 16 0 0 4 4 2 1 1 1 2 0 0 1 0 0 0 0 0
88000000 16 0 0 3 3 1 0 1 2 1 0 3 1 1 0 0 0 0
88250000 18 0 0 3 3 1 0 3 2 2 0 2 2 0 0 0 0 0
88500000 14 0 0 2 4 1 0 2 2 2 0 1 0 0 0 0 0 0
88750000 13 0 0 2 2 0 2 3 1 2 0 1 0 0 0 0 0 0
89000000 17 0 1 2 3 0 2 1 1 1 1 3 0 0 1 0 1 0
89250000 17 0 1 2 3 1 3 1 0 2 1 2 0 0 1 0 0 0
89500000 12 0 1 2 3 1 1 0 0 1 0 2 1 0 0 0 0 0
89750000 15 0 1 2 4 1 1 1 1 1 2 1 0 0 0 0 0 0
90000000 17 0 1 2 5 1 1 1 2 1 1 1 1 0 0 0 0 0
90250000 16 0 1 2 5 1 1 1 1 1 1 1 1 0 0 0 0 0
90500000 15 0 1 2 5 1 1 1 2 1 0 0 1 0 0 0 0 0
90750000 15 0 2 2 4 2 2 0 2 1 0 0 0 0 0 0 0 0
91000000 16 0 1 2 4 2 2 0 2 2 0 1 0 0 0 0 0 0
91250000 18 0 1 2 4 1 2 0 2 2 0 2 2 0 0 0 0 0
91500000 17 0 1 2 4 0 2 1 2 2 0 2 1 0 0 0 0 0
91750000 15 0 2 2 4 0 3 0 1 2 0 1 0 0 0 0 0 0
92000000 15 0 3 2 3 0 3 0 0 1 1 1 0 0 1 0 0 0
92250000 18 0 2 1 3 0 3 0 2 2 1 2 1 0 1 0 0 0
92500000 18 0 2 1 2 0 3 1 2 2 1 2 1 0 1 0 0 0
92750000 20 0 2 2 3 0 2 2 3 1 1 0 0 0 3 1 0 0
93000000 15 0 2 1 3 0 2 2 2 0 1 0 0 0 2 0 0 0
93250000 20 0 3 1 3 0 4 2 1 0 3 1 1 0 1 0 0 0
93500000 18 0 3 1 3 0 2 1 1 0 2 2 0 1 2 0 0 0
93750000 18 0 3 1 3 0 3 1 1 0 2 1 0 1 2 0 0 0
94000000 17 0 2 1 2 0 3 1 1 0 3 1 1 2 0 0 0 0
94250000 13 0 1 1 2 0 3 1 1 0 2 1 1 0 0 0 0 0
94500000 13 0 1 1 2 0 4 0 1 0 2 1 1 0 0 0 0 0
94750000 14 0 1 3 2 0 4 1 1 0 1 1 0 0 0 0 0 0
95000000 16 0 1 2 2 0 5 1 2 1 0 2 0 0 0 0 0 0
95250000 18 0 1 2 2 1 4 1 3 1 1 2 0 0 0 0 0 0
95500000 19 0 1 2 3 2 3 1 4 1 0 2 0 0 0 0 0 0
95750000 21 0 1 2 3 2 4 2 1 2 1 2 1 0 0 0 0 0
96000000 22 0 1 2 3 0 5 2 2 3 2 2 0 0 0 0 0 0
96250000 20 0 2 2 3 1 3 1 2 2 1 1 2 0 0 0 0 0
96500000 17 0 2 2 2 0 2 1 2 0 2 0 2 0 1 0 1 0
96750000 19 0 2 3 2 1 2 1 2 0 3 0 2 1 0 0 0 0
97000000 19 0 3 2 1 1 2 1 2 1 2 1 3 0 0 0 0 0
97250000 21 0 3 2 1 1 3 1 2 1 2 1 2 2 0 0 0 0
97500000 21 0 3 2 1 1 3 1 0 1 1 0 4 4 0 0 0 0
97750000 13 0 2 1 2 1 1 0 1 1 0 1 1 2 0 0 0 0
98000000 13 0 3 1 1 1 0 1 2 1 0 1 2 0 0 0 0 0
98250000 14 0 3 2 1 1 0 1 2 1 0 1 2 0 0 0 0 0
98500000 12 0 3 2 0 0 0 1 0 2 0 1 1 1 1 0 0 0
98750000 11 0 2 2 0 0 0 1 0 2 1 1 1 0 1 0 0 0
99000000 10 0 2 2 0 0 1 2 1 0 0 0 1 0 1 0 0 0
99250000 9 0 2 2 0 0 1 1 0 0 0 0 2 0 1 0 0 0
99500000 11 0 2 2 1 1 1 2 0 0 0 1 1 0 0 0 0 0
99750000 16 0 3 3 1 2 1 2 0 0 0 2 1 0 0 0 1 0
100000000 16 0 3 2 0 2 1 3 0 0 0 3 1 0 0 0 0 1
