50000000 101 0 1 4 4 11 12 9 9 10 17 10 7 5 2 0 0 0
51000000 101 0 1 5 7 12 11 4 10 8 17 9 7 9 1 0 0 0
52000000 87 0 2 4 4 10 4 9 9 9 15 6 8 5 2 0 0 0
53000000 99 0 2 5 4 12 7 6 6 8 18 11 11 7 2 0 0 0
54000000 108 0 3 7 6 10 8 7 14 17 17 11 5 2 1 0 0 0
55000000 96 1 2 8 5 6 8 4 6 10 18 13 11 4 0 0 0 0
56000000 90 1 3 8 8 2 5 6 2 7 10 11 14 7 6 0 0 0
57000000 85 0 1 8 5 3 6 3 8 8 14 10 13 2 2 2 0 0
58000000 101 0 2 11 6 7 5 6 9 15 22 8 7 0 2 0 0 1
59000000 93 0 1 8 7 5 6 10 12 11 17 8 2 4 1 1 0 0
60000000 82 0 2 5 5 3 5 3 9 10 14 11 6 5 2 1 0 1
61000000 96 0 1 6 7 2 4 3 17 11 13 17 8 6 1 0 0 0
62000000 93 0 2 5 3 3 4 5 12 11 12 15 9 5 4 2 1 0
63000000 101 0 2 5 3 3 5 11 11 8 22 12 8 4 3 4 0 0
64000000 95 0 1 5 3 6 6 6 9 16 13 10 12 4 4 0 0 0
65000000 103 0 3 4 4 4 9 8 12 15 18 12 6 6 1 0 1 0
66000000 107 1 5 4 4 5 5 7 9 17 20 17 6 7 0 0 0 0
67000000 107 1 6 4 7 4 3 4 11 17 16 19 11 3 1 0 0 0
68000000 92 0 4 5 6 8 1 8 13 16 16 11 2 1 1 0 0 0
69000000 90 0 5 5 3 9 6 5 10 17 9 11 5 3 1 1 0 0
70000000 92 0 2 6 4 4 4 6 11 15 17 12 8 2 1 0 0 0
71000000 103 0 1 7 2 8 6 11 12 10 15 14 9 4 1 3 0 0
72000000 89 0 1 5 3 6 4 8 8 16 11 9 9 4 3 1 1 0
73000000 90 0 2 7 5 5 4 5 8 9 13 12 7 8 5 0 0 0
74000000 105 0 2 8 5 4 7 8 12 13 12 17 10 6 1 0 0 0
75000000 99 0 1 2 6 8 3 8 12 13 13 16 4 5 4 2 2 0
76000000 101 0 3 3 7 9 6 8 10 18 10 12 6 4 4 1 0 0
77000000 100 0 1 3 5 8 6 7 13 29 7 11 6 3 1 0 0 0
78000000 103 1 2 3 3 5 10 12 6 25 10 13 6 6 1 0 0 0
79000000 97 1 1 2 4 5 11 10 6 17 12 9 9 9 1 0 0 0
80000000 90 0 2 2 4 7 5 10 7 13 12 10 12 5 1 0 0 0
81000000 98 0 3 2 7 5 9 7 7 13 12 19 7 3 3 1 0 0
82000000 95 0 3 2 4 7 8 9 11 16 10 11 9 4 1 0 0 0
83000000 97 0 3 4 3 5 7 14 12 11 12 13 7 4 1 0 1 0
84000000 90 0 2 3 5 5 7 8 12 11 11 10 11 3 1 1 0 0
85000000 83 0 0 2 8 4 3 6 8 12 10 13 5 6 5 1 0 0
86000000 87 0 0 3 6 5 6 4 7 10 8 11 16 4 5 1 0 1
87000000 96 0 1 4 6 8 4 5 9 18 12 10 11 6 0 2 0 0
88000000 108 0 1 4 9 8 7 8 11 22 10 10 8 5 5 0 0 0
89000000 98 0 1 2 8 11 4 7 9 14 7 16 14 5 0 0 0 0
90000000 104 0 1 4 8 7 7 8 14 12 14 18 7 3 1 0 0 0
91000000 100 0 1 3 8 11 7 3 6 10 15 12 10 8 2 2 0 2
92000000 95 0 2 2 6 12 8 4 9 13 12 12 10 3 2 0 0 0
93000000 96 0 3 2 7 10 9 4 8 11 13 7 11 6 3 1 1 0
94000000 92 0 5 2 7 10 7 8 9 10 12 8 3 6 5 0 0 0
95000000 95 0 5 4 4 7 6 6 8 10 13 13 7 7 4 0 0 1
96000000 99 0 2 8 5 10 5 4 11 10 16 7 9 4 7 0 1 0
97000000 112 0 4 6 6 8 9 8 11 17 19 11 7 4 0 1 0 1
98000000 99 0 4 5 5 8 8 9 12 15 13 11 5 2 0 1 1 0
99000000 101 0 6 6 6 8 6 8 11 18 10 9 5 4 3 1 0 0
100000000 113 1 4 7 5 5 7 8 6 16 15 15 15 5 3 1 0 0
