50000000 337 1 2 9 10 13 10 22 16 33 57 61 66 26 9 2 0 0
52000000 336 0 2 9 10 10 15 14 19 32 50 62 70 27 14 1 1 0
54000000 330 0 3 10 8 9 17 13 19 37 53 56 58 36 8 2 1 0
56000000 327 0 5 9 12 14 19 15 14 36 46 53 55 34 8 4 3 0
58000000 325 0 7 9 9 13 15 16 25 32 55 43 65 28 8 0 0 0
60000000 312 0 7 8 11 15 11 16 26 32 46 50 59 17 14 0 0 0
62000000 319 0 5 7 9 15 11 18 33 35 53 45 51 27 5 5 0 0
64000000 317 0 6 11 9 12 12 17 31 30 44 46 52 33 12 2 0 0
66000000 339 0 7 10 7 9 14 18 27 39 50 54 57 38 8 0 0 1
68000000 325 0 7 9 8 8 10 15 33 36 54 60 51 21 11 2 0 0
70000000 322 0 4 11 8 6 9 16 30 36 44 57 54 32 10 5 0 0
72000000 312 0 7 11 7 8 13 14 22 43 37 56 48 30 11 4 1 0
74000000 304 0 7 10 4 6 17 13 24 37 25 58 56 36 7 3 1 0
76000000 324 1 4 9 6 6 16 16 30 34 34 64 60 31 9 4 0 0
78000000 312 0 5 11 6 7 20 16 25 32 34 61 51 36 7 1 0 0
80000000 302 0 5 12 7 5 14 18 28 32 44 60 42 30 3 2 0 0
82000000 311 0 5 9 9 6 13 17 21 33 40 62 55 35 4 2 0 0
84000000 323 0 7 8 9 6 13 13 28 37 43 61 58 32 4 4 0 0
86000000 333 0 7 9 6 7 17 17 30 34 44 67 57 33 4 1 0 0
88000000 341 0 6 7 9 7 14 15 29 37 43 69 67 28 10 0 0 0
90000000 342 0 4 6 8 6 19 20 29 33 46 77 58 28 8 0 0 0
92000000 344 0 5 7 8 6 14 19 29 33 48 71 61 29 11 3 0 0
94000000 351 0 5 9 8 7 13 17 33 35 58 71 56 24 9 3 2 1
96000000 335 0 3 8 9 5 12 23 32 27 49 76 50 31 7 3 0 0
98000000 347 0 3 8 7 6 9 26 28 32 62 62 72 25 6 1 0 0
100000000 344 0 3 9 8 4 8 28 31 31 62 64 58 29 8 1 0 0
