50000000 272 0 5 11 11 9 20 18 21 23 41 50 36 19 7 0 1 0
52000000 259 0 3 13 11 5 20 17 13 20 52 45 36 18 5 0 0 1
54000000 244 0 2 13 10 4 13 20 14 25 49 46 36 9 3 0 0 0
56000000 251 0 2 12 8 8 11 17 16 25 54 49 28 17 1 3 0 0
58000000 254 0 3 10 14 10 15 20 15 25 43 46 23 25 4 1 0 0
60000000 255 0 5 8 11 12 14 16 16 21 42 46 34 20 9 1 0 0
62000000 260 0 4 7 13 12 14 19 23 25 52 34 32 18 6 1 0 0
64000000 237 0 6 10 9 13 11 10 16 26 43 36 25 20 8 4 0 0
66000000 263 0 6 8 11 10 13 14 17 31 49 41 31 22 8 1 0 1
68000000 247 0 3 6 12 9 11 17 20 27 50 46 24 14 5 3 0 0
70000000 258 0 3 7 13 7 17 17 19 30 43 53 31 12 6 0 0 0
72000000 247 0 5 7 12 8 14 15 18 28 47 40 38 13 1 1 0 0
74000000 253 0 5 7 11 13 10 11 19 35 48 44 29 17 4 0 0 0
76000000 251 0 5 10 14 10 7 12 21 34 45 48 31 13 1 0 0 0
78000000 252 0 4 7 13 14 11 12 20 33 49 49 23 14 3 0 0 0
80000000 240 1 5 7 12 12 13 13 22 33 45 42 24 6 4 1 0 0
82000000 261 0 6 7 11 13 9 13 24 40 52 43 26 14 2 1 0 0
84000000 255 0 5 7 12 14 10 15 35 31 53 37 22 9 3 1 1 0
86000000 265 0 8 7 12 8 9 13 34 38 55 42 25 11 2 0 0 1
88000000 255 0 7 4 12 12 10 15 27 36 50 40 25 12 4 1 0 0
90000000 271 0 6 7 7 10 10 19 31 40 50 50 25 10 6 0 0 0
92000000 269 1 6 6 8 8 12 21 28 37 52 49 29 7 4 1 0 0
94000000 258 0 5 5 8 8 11 16 25 33 46 46 31 18 4 2 0 0
96000000 233 0 3 5 6 10 8 20 23 23 35 45 38 12 4 1 0 0
98000000 239 0 2 3 7 9 8 25 18 24 36 49 40 12 4 2 0 0
100000000 256 0 5 4 2 14 7 20 23 40 45 51 30 11 4 0 0 0
